{
	"gravity": 0.0,
	"relpermittivity": 1.0,
	"charges": [
		{
			"charge": 1.0,
			"mass": 1.0,
			"x": 0.0,
			"y": 75.0,
			"vx": 0.0,
			"vy": 0.0,
			"fixed_x": true,
			"fixed_y": true
		},
		{
			"charge": 1.0,
			"mass": 1.0,
			"x": 0.0,
			"y": -75.0,
			"vx": 0.0,
			"vy": 0.0,
			"fixed_x": true,
			"fixed_y": true
		},
		{
			"charge": -1.0,
			"mass": 1.0,
			"x": 100.0,
			"y": 0.0,
			"vx": 0.0,
			"vy": 0.0,
			"fixed_x": false,
			"fixed_y": false
		}
	]
}